4230283
4230283 is a prime

real	0m3.391s
user	0m0.034s
sys	0m0.046s
 
Batch Job Summary Report for Job "job_omp" (21131762) on daint
-----------------------------------------------------------------------------------------------------
             Submit            Eligible               Start                 End    Elapsed  Timelimit 
------------------- ------------------- ------------------- ------------------- ---------- ---------- 
2020-03-16T20:46:45 2020-03-16T20:46:45 2020-03-16T20:46:51 2020-03-16T20:47:25   00:00:34   00:20:00 
-----------------------------------------------------------------------------------------------------
Username    Account     Partition   NNodes   Energy
----------  ----------  ----------  ------  --------------
course88    uzh8        debug            1        0 joules
 
This job did not utilize any GPUs
 
----------------------------------------------------------
Scratch File System        Files       Quota
--------------------  ----------  ----------
/scratch/snx3000              39     1000000
 
4572862171001
3016968057 is not a prime

real	0m42.889s
user	0m0.043s
sys	0m0.037s
 
Batch Job Summary Report for Job "job_omp" (21131774) on daint
-----------------------------------------------------------------------------------------------------
             Submit            Eligible               Start                 End    Elapsed  Timelimit 
------------------- ------------------- ------------------- ------------------- ---------- ---------- 
2020-03-16T20:47:36 2020-03-16T20:47:36 2020-03-16T20:47:42 2020-03-16T20:48:42   00:01:00   00:20:00 
-----------------------------------------------------------------------------------------------------
Username    Account     Partition   NNodes   Energy
----------  ----------  ----------  ------  --------------
course88    uzh8        debug            1        0 joules
 
This job did not utilize any GPUs
 
----------------------------------------------------------
Scratch File System        Files       Quota
--------------------  ----------  ----------
/scratch/snx3000              39     1000000
 
